\relax 
\@setckpt{planetlab.tex}{
\setcounter{page}{15}
\setcounter{equation}{0}
\setcounter{enumi}{0}
\setcounter{enumii}{0}
\setcounter{enumiii}{0}
\setcounter{enumiv}{0}
\setcounter{footnote}{0}
\setcounter{mpfootnote}{0}
\setcounter{part}{0}
\setcounter{chapter}{6}
\setcounter{section}{0}
\setcounter{subsection}{3}
\setcounter{subsubsection}{0}
\setcounter{paragraph}{0}
\setcounter{subparagraph}{0}
\setcounter{figure}{0}
\setcounter{table}{0}
\setcounter{lstnumber}{2}
\setcounter{Item}{0}
\setcounter{Hfootnote}{7}
\setcounter{DefaultLines}{2}
\setcounter{L@lines}{3}
\setcounter{lstlisting}{0}
\setcounter{section@level}{0}
}
